-------------------------------------------------------------------------------
Test set: com.epam.mesos.CouponControllerTest
-------------------------------------------------------------------------------
Tests run: 6, Failures: 0, Errors: 0, Skipped: 0, Time elapsed: 0.25 sec - in com.epam.mesos.CouponControllerTest
